{
  "name": "Sms",
  "inject": ["SmsService", "ValueGenerator"],
  "operations": [
    {
      "method": "POST",
      "path": "/send",
      "title": "Create SMS",
      "description": "Creates a SMS.",
      "responseType": "SmsPostResponse",
      "responseStatus": 201,
      "responseDescription": "Returns the metadata related to the create request.",
      "group": "Sms",
      "inputTypes": {
        "body": "SmsPostRequest",
        "metadata": "ApiGatewayMetadata"
      },
      "flow": {
        "1": {
          "invoke": "SmsService.create",
          "input": ["body"]
        }
      }
    }
  ]
}
