{
  "name": "sms-service",
  "version": "1.0",
  "host": "sms-host.com",
  "path": "/sms-service",
  "title": "Sms",
  "description": "Generic SMS Service used to deliver messages to end users.",
  "color": "blue",
  "icon": "key"
}
