{
  "SmsPostRequest": {
    "type": {
      "type": "enum",
      "enum": "SmsType",
      "description": "Type of the message. This impacts delivery priority and cost. Promotional will be used by default.",
      "required": false
    },
    "senderId": {
      "type": "string",
      "description": "The name from which the message will appear to be sent. 11 characters maximum, at least one letter.",
      "required": false,
      "example": "VWFS"
    },
    "message": {
      "type": "string",
      "description": "The content of the message to be sent. If the message exceeds the SMS length limit it will be automatically split into multiple messages.",
      "required": true,
      "example": "This is an example SMS message"
    },
    "receiverNumber": {
      "type": "string",
      "description": "The number to which the message is to be delivered to. E.164 format.",
      "required": true,
      "example": "+48123456789"
    }
  },
  "SmsPostResponse": {
    "requestId": {
      "type": "uuid",
      "description": "Amazon SNS Request Id",
      "required": true,
      "example": "fadfee93-df71-4419-8bd4-50a00c3c42ab"
    },
    "messageId": {
      "type": "uuid",
      "description": "Amazon SNS Message Id - can be used to look up the message delivery details in Cloud Logs",
      "required": false,
      "example": "50a00c3c-df71-4419-8bd4-50a00c3c42ab"
    }
  },
  "$enums": {
    "SmsType": {
      "$description": "Types of SMS supported by the provider. Might impact delivery delay and pricing.",
      "Promotional": {
        "value": "Promotional",
        "description": "The SMS is to be market as a promotional / marketing message and will be delivered with lower priority / cost"
      },
      "Transactional": {
        "value": "Transactional",
        "description": "The SMS is used to verify a transaction (e.g. containing a TAN or PIN) and should be delivered with highest priority. This option incures higher costs."
      }
    }
  }
}
